Place,Name,Sex,Event,Division,WeightClassKg,Equipment,BirthYear,Team,State,BodyweightKg,Squat1Kg,Squat2Kg,Squat3Kg,Best3SquatKg,Bench1Kg,Bench2Kg,Bench3Kg,Best3BenchKg,Deadlift1Kg,Deadlift2Kg,Deadlift3Kg,Best3DeadliftKg,TotalKg,Age,BirthDate
1,Sarah Hernandez #1,F,SBD,FR-Jr,48,Raw,1999,,CA,47.2,92.5,97.5,-100,97.5,65,70,72.5,72.5,120,127.5,135,135,305,,
1,Sheyanne Villamor,F,SBD,FR-Jr,52,Raw,1999,,CA,48.9,75,77.5,-82.5,77.5,27.5,30,32.5,32.5,92.5,97.5,100,100,210,,
1,Rebecca Row,F,SBD,FR-Jr,75,Raw,2001,,CA,72.65,130,137.5,142.5,142.5,65,70,-72.5,70,150,160,167.5,167.5,380,,
1,Jocelyn Hernandez,F,SBD,FR-Jr,90,Raw,1999,,CA,88.95,137.5,145,152.5,152.5,67.5,72.5,75,75,145,152.5,-162.5,152.5,380,,
2,Cassidy Nelson,F,SBD,FR-Jr,90,Raw,1999,,CA,86.5,102.5,112.5,117.5,117.5,42.5,50,52.5,52.5,107.5,117.5,122.5,122.5,292.5,,
1,Emily Delos Santos,F,SBD,FR-Jr,100+,Raw,1999,,CA,115.7,90,102.5,107.5,107.5,60,67.5,72.5,72.5,102.5,117.5,125,125,305,,
1,Sofia Avalos,F,SBD,FR-Jr,67.5,Raw,2001,,CA,64.9,147.5,155,162.5,162.5,62.5,67.5,70,70,140,150,160,160,392.5,,
2,Erin Balatayo,F,SBD,FR-Jr,67.5,Raw,1998,,CA,65.6,92.5,97.5,102.5,102.5,45,47.5,50,50,117.5,125,132.5,132.5,285,,
1,Yuzhou Zou,F,SBD,FR-O,52,Raw,1991,,CA,51.65,117.5,122.5,-127.5,122.5,67.5,70,-72.5,70,150,155,160,160,352.5,,
2,Zahra Galvez,F,SBD,FR-O,52,Raw,1997,,CA,51.3,97.5,102.5,107.5,107.5,60,-65,65,65,130,142.5,147.5,147.5,320,,
3,Zilin Zhou,F,SBD,FR-O,52,Raw,1997,,CA,50.55,97.5,102.5,107.5,107.5,47.5,50,52.5,52.5,117.5,125,130,130,290,,
4,Jennifer Ly,F,SBD,FR-O,52,Raw,1994,,CA,51.2,67.5,75,-80,75,32.5,35,37.5,37.5,67.5,75,82.5,82.5,195,,
1,Tirsa St Fort,F,SBD,FR-O,56,Raw,1988,Bougie Builders,CA,55.35,127.5,137.5,145,145,77.5,80,87.5,87.5,140,150,-162.5,150,382.5,,
2,Mary Siharath,F,SBD,FR-O,56,Raw,1986,,CA,55.2,105,110,-115,110,62.5,65,67.5,67.5,135,142.5,147.5,147.5,325,,
1,Isabelle Wong,F,SBD,FR-O,75,Raw,1994,,CA,74.4,145,152.5,160,160,62.5,65,-70,65,152.5,162.5,170,170,395,,
1,Ana Cyrene Manalili,F,SBD,FR-O,90,Raw,1998,,CA,89.65,150,160,170,170,75,80,85,85,165,177.5,190,190,445,,
2,Aliza Beverage,F,SBD,FR-O,90,Raw,1997,,CA,87.1,125,132.5,140,140,70,-75,-75,70,162.5,172.5,182.5,182.5,392.5,,
1,Deanna Canales,F,SBD,FR-O,100,Raw,1994,Spartan Powerlifting at SJSU,CA,90.95,67.5,72.5,77.5,77.5,37.5,42.5,-45,42.5,100,107.5,112.5,112.5,232.5,,
1,Jessica Palaganas,F,SBD,FR-O,67.5,Raw,1998,,CA,66.55,137.5,142.5,150,150,70,72.5,-77.5,72.5,147.5,155,-165,155,377.5,,
2,Ivy Mooc,F,SBD,FR-O,67.5,Raw,1998,,CA,62.5,-135,145,-155,145,45,52.5,-57.5,52.5,135,-145,-145,135,332.5,,
3,Linda Almaguer,F,SBD,FR-O,67.5,Raw,1987,,CA,66.85,100,105,110,110,55,57.5,60,60,120,125,132.5,132.5,302.5,,
4,Satoko Ayabe,F,SBD,FR-O,67.5,Raw,1996,,CA,65.5,95,100,105,105,55,60,62.5,62.5,112.5,120,127.5,127.5,295,,
1,Christian Lucero,M,SBD,MR-Jr,75,Raw,2000,,CA,73.5,170,180,-190,180,150,162.5,-167.5,162.5,210,217.5,235,235,577.5,,
2,Matty Carbonell,M,SBD,MR-Jr,75,Raw,2000,,CA,73.3,185,-197.5,197.5,197.5,105,112.5,117.5,117.5,232.5,245,-262.5,245,560,,
3,Andy Han,M,SBD,MR-Jr,75,Raw,1998,,CA,74.2,202.5,215,220,220,90,95,-97.5,95,195,210,230,230,545,,
4,Jordan Ng,M,SBD,MR-Jr,75,Raw,2000,,CA,74.6,165,175,-182.5,175,102.5,107.5,-110,107.5,205,215,220,220,502.5,,
DQ,Elton Zhou,M,SBD,MR-Jr,75,Raw,1998,,CA,74.8,145,,,145,110,115,122.5,122.5,,,,,,,
1,Jimmy Duong,M,SBD,MR-Jr,90,Raw,1999,,CA,87.7,185,197.5,210,210,120,135,-142.5,135,240,260,-272.5,260,605,,
2,Spencer Wong,M,SBD,MR-Jr,90,Raw,1998,,CA,84.9,212.5,-222.5,222.5,222.5,142.5,-152.5,,142.5,212.5,225,235,235,600,,
1,Victor Magallanes,M,SBD,MR-Jr,100,Raw,2000,Spartan Powerlifting at SJSU,CA,98.5,160,170,-182.5,170,105,115,120,120,162.5,175,182.5,182.5,472.5,,
2,Jonathan Joel Prudente,M,SBD,MR-Jr,100,Raw,2000,Spartan Powerlifting at SJSU,CA,97.9,140,152.5,-155,152.5,80,82.5,-85,82.5,170,182.5,-187.5,182.5,417.5,,
1,Eaton Simpliciano,M,SBD,MR-Jr,67.5,Raw,2000,,CA,66.7,160,170,180,180,97.5,105,112.5,112.5,205,217.5,-230,217.5,510,,
2,Shawn Jericho Ednave,M,SBD,MR-Jr,67.5,Raw,1999,,CA,67.2,157.5,167.5,-172.5,167.5,102.5,105,107.5,107.5,185,195,202.5,202.5,477.5,,
1,Morgan Chan,M,SBD,MR-Jr,82.5,Raw,2000,,CA,82,225,240,250,250,155,162.5,167.5,167.5,265,-275,275,275,692.5,,
2,Stuart Feng,M,SBD,MR-Jr,82.5,Raw,2000,,CA,82,225,235,245,245,160,172.5,180,180,232.5,245,257.5,257.5,682.5,,
3,David Nguyen #7,M,SBD,MR-Jr,82.5,Raw,2000,,CA,79.9,170,180,190,190,117.5,125,130,130,210,220,230,230,550,,
4,Alex Moun,M,SBD,MR-Jr,82.5,Raw,1998,,CA,81.2,182.5,192.5,202.5,202.5,110,115,117.5,117.5,187.5,202.5,215,215,535,,
5,David Villanueva,M,SBD,MR-Jr,82.5,Raw,2000,,CA,78.2,150,165,-170,165,110,112.5,115,115,212.5,-227.5,227.5,227.5,507.5,,
6,Minh Vu #2,M,SBD,MR-Jr,82.5,Raw,1999,,CA,79.7,137.5,147.5,152.5,152.5,117.5,122.5,125,125,162.5,175,182.5,182.5,460,,
1,Jose Guadalupe Dominguez,M,SBD,MR-M1a,82.5,Raw,1981,,CA,81.5,112.5,120,127.5,127.5,82.5,87.5,-92.5,87.5,125,135,142.5,142.5,357.5,,
1,Bryan Lov,M,SBD,MR-O,60,Raw,1997,,CA,58,125,135,145,145,100,107.5,-115,107.5,160,170,180,180,432.5,,
1,Vinh Nguyen #5,M,SBD,MR-O,75,Raw,1991,,CA,74.5,195,207.5,212.5,212.5,135,140,145,145,195,202.5,212.5,212.5,570,,
2,Henry Yu,M,SBD,MR-O,75,Raw,1991,,CA,70.3,177.5,185,187.5,187.5,112.5,122.5,125,125,182.5,195,202.5,202.5,515,,
3,David Wang,M,SBD,MR-O,75,Raw,1984,,CA,74.6,165,175,180,180,120,125,-130,125,190,195,200,200,505,,
4,Jarrett Hsieh,M,SBD,MR-O,75,Raw,1998,,OH,74.1,150,165,175,175,100,105,110,110,200,210,215,215,500,,
5,Ramen Murugadoss,M,SBD,MR-O,75,Raw,2004,,CA,69.7,165,180,190,190,-92.5,97.5,102.5,102.5,187.5,200,-215,200,492.5,,
6,David Voong,M,SBD,MR-O,75,Raw,1992,,CA,72.2,157.5,167.5,175,175,95,102.5,107.5,107.5,180,192.5,205,205,487.5,,
7,Kris Sullivan,M,SBD,MR-O,75,Raw,1985,Bougie Builders,CA,73.3,165,-175,-175,165,102.5,112.5,-120,112.5,185,195,205,205,482.5,,
8,Kevin Cho,M,SBD,MR-O,75,Raw,1992,,CA,73.7,165,175,182.5,182.5,97.5,105,-107.5,105,190,-205,-205,190,477.5,,
1,Allen Matsumoto,M,SBD,MR-O,90,Raw,1989,,CA,88.4,225,235,242.5,242.5,160,167.5,-172.5,167.5,252.5,265,275,275,685,,
2,Anthony Calderon,M,SBD,MR-O,90,Raw,1996,,CA,89.7,220,-235,235,235,120,-127.5,-127.5,120,220,235,245,245,600,,
3,Cesar Aribal,M,SBD,MR-O,90,Raw,1997,,CA,89.1,185,207.5,-227.5,207.5,105,112.5,-117.5,112.5,225,247.5,-255,247.5,567.5,,
4,Brian Tran,M,SBD,MR-O,90,Raw,1996,,CA,84.1,125,-135,145,145,102.5,107.5,110,110,155,165,-180,165,420,,
1,Andrew Gatdula,M,SBD,MR-O,100,Raw,1998,,CA,98.7,215,225,232.5,232.5,127.5,135,-137.5,135,260,270,277.5,277.5,645,,
2,Maalik Nixon,M,SBD,MR-O,100,Raw,1998,,CA,96.7,197.5,215,230,230,-120,130,-135,130,230,240,252.5,252.5,612.5,,
3,Joshua Catudioc,M,SBD,MR-O,100,Raw,1991,,CA,97.9,160,165,170,170,90,95,97.5,97.5,195,200,205,205,472.5,,
4,Jonathan Joel Prudente,M,SBD,MR-O,100,Raw,2000,Spartan Powerlifting at SJSU,CA,97.9,140,152.5,-155,152.5,80,82.5,-85,82.5,170,182.5,-187.5,182.5,417.5,,
1,Stephen Tran,M,SBD,MR-O,110,Raw,1996,,CA,108.4,-187.5,-197.5,207.5,207.5,112.5,117.5,122.5,122.5,205,215,-227.5,215,545,,
2,Ernesto Avila,M,SBD,MR-O,110,Raw,1995,,CA,110,142.5,150,155,155,95,100,-105,100,130,140,155,155,410,,
1,Spencer Klugherz,M,SBD,MR-O,125,Raw,1990,,CA,122.7,220,-230,-230,220,177.5,187.5,195,195,225,240,255,255,670,,
1,Travis Cohan,M,SBD,MR-O,140,Raw,1990,,CA,137.1,185,-200,205,205,130,137.5,142.5,142.5,210,225,237.5,237.5,585,,
2,Brandon Boyd #4,M,SBD,MR-O,140,Raw,1995,,CA,138.5,160,170,180,180,107.5,112.5,125,125,187.5,197.5,210,210,515,,
1,Benny Chin,M,SBD,MR-O,67.5,Raw,1993,,CA,63.8,147.5,155,162.5,162.5,102.5,110,-112.5,110,205,217.5,227.5,227.5,500,,
2,Danny Chen,M,SBD,MR-O,67.5,Raw,1991,,CA,64.9,167.5,172.5,175,175,102.5,-107.5,107.5,107.5,172.5,182.5,-187.5,182.5,465,,
DQ,Steve Dang,M,SBD,MR-O,67.5,Raw,1997,,CA,67.1,140,150,-160,150,-95,-95,-95,,185,190,-200,190,,,
1,Morgan Chan,M,SBD,MR-O,82.5,Raw,2000,,CA,82,225,240,250,250,155,162.5,167.5,167.5,265,-275,275,275,692.5,,
2,Benjamin Dresher,M,SBD,MR-O,82.5,Raw,1985,,CA,81.5,225,235,-245,235,130,135,-140,135,265,280,-285,280,650,,
3,Steven Kobori,M,SBD,MR-O,82.5,Raw,1995,,CA,80.9,175,187.5,200,200,135,145,-155,145,195,217.5,230,230,575,,
4,Jose Becerra,M,SBD,MR-O,82.5,Raw,1995,Spartan Powerlifting at SJSU,CA,82.5,167.5,177.5,187.5,187.5,115,122.5,-127.5,122.5,175,185,195,195,505,,
5,Jeremy Lubin,M,SBD,MR-O,82.5,Raw,1987,,CA,80.3,127.5,135,142.5,142.5,95,100,-105,100,145,155,160,160,402.5,,
DQ,Alan Duarte,M,SBD,MR-O,82.5,Raw,1992,,CA,80.6,172.5,180,,180,-120,,,,,,,,,,
1,Juan Estrada,M,SBD,MR-T2,75,Raw,2004,,CA,73.9,170,177.5,185,185,127.5,137.5,142.5,142.5,190,200,205,205,532.5,,
1,Bryan Tran,M,SBD,MR-T3,75,Raw,2002,,CA,69.3,125,132.5,140,140,82.5,87.5,90,90,167.5,177.5,185,185,415,,
1,Marvin Agot,M,SBD,MR-T3,110,Raw,2002,,CA,108.8,210,220,222.5,222.5,102.5,110,115,115,212.5,222.5,230,230,567.5,,
1,Enron Nguyen,M,SBD,MR-T3,67.5,Raw,2003,,CA,65.9,150,160,170,170,95,100,-110,100,190,200,-210,200,470,,
1,Joonsoo Choi,M,SBD,MR-T3,82.5,Raw,2002,,CA,78.1,160,170,182.5,182.5,87.5,95,97.5,97.5,185,195,-210,195,475,,
