Division,WeightClassKg,Place,Name,Team,BodyweightKg,Best3SquatKg,Best3BenchKg,Best3DeadliftKg,TotalKg,Equipment,Event,Sex,BirthDate
Girls,44.23,1,Jailyn Rios,Mission,39.92,83.91,34.02,106.59,224.53,Unlimited,SBD,F,
Girls,44.23,2,Alexa Rodriguez,McAllen Rowe,44.09,79.38,38.56,86.18,204.12,Unlimited,SBD,F,
Girls,44.23,3,Alejandra Espinoza,Pharr Valley View,43.77,70.31,29.48,74.84,174.63,Unlimited,SBD,F,
Girls,44.23,4,Sophia Segundo,Sharyland Pioneer,43.18,70.31,27.22,72.57,170.1,Unlimited,SBD,F,
Girls,44.23,5,Samantha Sanchez,La Joya,44.13,68.04,20.41,70.31,158.76,Unlimited,SBD,F,
Girls,44.23,6,Mia Perales,McAllen,35.74,56.7,34.02,56.7,147.42,Unlimited,SBD,F,
Girls,47.85,1,Jennifer Vela,La Joya Juarez-Lincoln,47.26,129.27,83.91,129.27,342.46,Unlimited,SBD,F,
Girls,47.85,2,Geily Patino,La Joya Juarez-Lincoln,47.81,99.79,45.36,97.52,242.67,Unlimited,SBD,F,
Girls,47.85,3,Aylin Resendez,Rio Grande City Grulla,46.63,95.25,45.36,97.52,238.14,Unlimited,SBD,F,
Girls,47.85,4,Sarai Garza,McAllen Rowe,47.85,102.06,45.36,90.72,238.14,Unlimited,SBD,F,
Girls,47.85,5,Ashley Martinez,Rio Grande City,47.85,83.91,43.09,81.65,208.65,Unlimited,SBD,F,
Girls,47.85,6,Maiah Perez,La Joya Palmview,47.85,77.11,43.09,81.65,201.85,Unlimited,SBD,F,
Girls,47.85,7,Angela Cerda,Rio Grande City Grulla,47.81,77.11,38.56,74.84,190.51,Unlimited,SBD,F,
Girls,47.85,8,Yadira Mejia,La Joya,46.4,52.16,22.68,74.84,149.69,Unlimited,SBD,F,
Girls,47.85,DQ,Joselyn Salinas,La Joya,46.9,,,,,Unlimited,SBD,F,
Girls,47.85,DQ,Layla Flores,Rio Grande City Grulla,47.76,86.18,,,,Unlimited,SBD,F,
Girls,51.94,1,Maleni Flores,La Joya Juarez-Lincoln,50.58,111.13,47.63,111.13,269.89,Unlimited,SBD,F,
Girls,51.94,2,Valerie Campos,McAllen,50.94,111.13,47.63,97.52,256.28,Unlimited,SBD,F,
Girls,51.94,3,Aryam Benitez,Roma,51.21,90.72,43.09,99.79,233.6,Unlimited,SBD,F,
Girls,51.94,4,Yulie Prado,Pharr Valley View,48.76,77.11,38.56,88.45,204.12,Unlimited,SBD,F,
Girls,51.94,5,Dianthe Gonzalez,Sharyland Pioneer,49.35,61.23,31.75,99.79,192.78,Unlimited,SBD,F,
Girls,51.94,6,Karla Vera,La Joya,51.85,61.23,36.29,90.72,188.24,Unlimited,SBD,F,
Girls,51.94,7,Leily Garcia,La Joya,49.85,63.5,27.22,65.77,156.49,Unlimited,SBD,F,
Girls,51.94,DQ,Lily Contreras,McAllen Memorial,50.67,117.93,,,,Unlimited,SBD,F,
Girls,51.94,DQ,Eyvanna Quiroz,Rio Grande City Grulla,51.94,72.57,,,,Unlimited,SBD,F,
Girls,56.02,1,Maria Escobedo,La Joya Juarez-Lincoln,55.02,127.01,88.45,124.74,340.19,Unlimited,SBD,F,
Girls,56.02,2,Bryana Izaguirre,La Joya Juarez-Lincoln,52.25,108.86,54.43,106.59,269.89,Unlimited,SBD,F,
Girls,56.02,3,Samantha Solis,La Joya,54.57,65.77,47.63,92.99,206.38,Unlimited,SBD,F,
Girls,56.02,4,Aralynn Molina,Rio Grande City Grulla,52.03,79.38,38.56,83.91,201.85,Unlimited,SBD,F,
Girls,56.02,5,Krystal Cornejo,McAllen Rowe,53.61,74.84,31.75,77.11,183.7,Unlimited,SBD,F,
Girls,56.02,6,Abril Maldonado,La Joya,55.47,45.36,34.02,65.77,145.15,Unlimited,SBD,F,
Girls,60.1,1,Luna Cuevas,McAllen Memorial,58.15,174.63,92.99,149.69,417.3,Unlimited,SBD,F,
Girls,60.1,2,Aly Ovalle,La Joya Juarez-Lincoln,58.79,142.88,58.97,124.74,326.59,Unlimited,SBD,F,
Girls,60.1,3,Natalia Cuevas,McAllen Memorial,59.06,120.2,68.04,113.4,301.64,Unlimited,SBD,F,
Girls,60.1,4,Sarai Garcia,La Joya Palmview,60.01,122.47,58.97,120.2,301.64,Unlimited,SBD,F,
Girls,60.1,5,Melanie Portillo,Rio Grande City,59.1,113.4,61.23,120.2,294.84,Unlimited,SBD,F,
Girls,60.1,6,Miranda Cantu,McAllen Rowe,60.06,115.67,58.97,117.93,292.57,Unlimited,SBD,F,
Girls,60.1,7,Rimberlyn De Anda,Roma,58.92,99.79,43.09,117.93,260.82,Unlimited,SBD,F,
Girls,60.1,8,Dulce Lopez,Pharr Valley View,58.88,99.79,40.82,83.91,224.53,Unlimited,SBD,F,
Girls,60.1,9,Jessica Barron,Roma,58.97,77.11,34.02,86.18,197.31,Unlimited,SBD,F,
Girls,60.1,10,Abigail Salinas,La Joya,60.01,77.11,22.68,83.91,183.7,Unlimited,SBD,F,
Girls,60.1,DQ,Hailey Carrejo,McAllen Rowe,56.93,102.06,,,,Unlimited,SBD,F,
Girls,60.1,DQ,Jaky Reyna,McAllen Memorial,58.33,,,,,Unlimited,SBD,F,
Girls,67.36,1,Kayleen Perez,Roma,67.36,185.97,111.13,161.03,458.13,Unlimited,SBD,F,
Girls,67.36,2,Isabella Garza,McAllen Rowe,67.36,158.76,102.06,140.61,401.43,Unlimited,SBD,F,
Girls,67.36,3,Yesica Avila,Sharyland Pioneer,66.77,181.44,74.84,142.88,399.16,Unlimited,SBD,F,
Girls,67.36,4,Andrea Gutierrez,McAllen Rowe,66.81,151.95,92.99,142.88,387.82,Unlimited,SBD,F,
Girls,67.36,5,Jozelyn Palafox,La Joya Palmview,61.46,133.81,63.5,122.47,319.78,Unlimited,SBD,F,
Girls,67.36,6,Cadance Aguilar,McAllen Rowe,66.13,140.61,61.23,108.86,310.71,Unlimited,SBD,F,
Girls,67.36,7,Natalia Torres,McAllen,64.73,124.74,65.77,111.13,301.64,Unlimited,SBD,F,
Girls,67.36,8,Yesenia Vela,La Joya Palmview,62.91,92.99,40.82,92.99,226.8,Unlimited,SBD,F,
Girls,67.36,9,Sophia Salazar,McAllen,64.95,92.99,43.09,81.65,217.72,Unlimited,SBD,F,
Girls,67.36,10,Ashley Roque,Roma,66.09,86.18,38.56,92.99,217.72,Unlimited,SBD,F,
Girls,67.36,11,Emily Romero,La Joya Palmview,67.36,81.65,34.02,86.18,201.85,Unlimited,SBD,F,
Girls,67.36,12,Maya Pina,Roma,67.18,79.38,36.29,83.91,199.58,Unlimited,SBD,F,
Girls,67.36,13,Arendy Barron,La Joya Palmview,66.41,70.31,43.09,79.38,192.78,Unlimited,SBD,F,
Girls,67.36,14,Shalia Tejada,La Joya,64.95,61.23,27.22,86.18,174.63,Unlimited,SBD,F,
Girls,67.36,DQ,Valerya Adame,Mission,66.22,,,,,Unlimited,SBD,F,
Girls,75.07,1,Kaedyn Pulido,McAllen,67.45,176.9,115.67,140.61,433.18,Unlimited,SBD,F,
Girls,75.07,2,Isabella Salinas,McAllen,72.76,161.03,102.06,145.15,408.23,Unlimited,SBD,F,
Girls,75.07,3,Mya Herrera,McAllen Memorial,73.84,127.01,72.57,106.59,306.17,Unlimited,SBD,F,
Girls,75.07,4,Abigail Hinojosa,McAllen,74.53,133.81,56.7,113.4,303.91,Unlimited,SBD,F,
Girls,75.07,5,Mariana Benavides,Pharr Valley View,70.35,127.01,58.97,108.86,294.84,Unlimited,SBD,F,
Girls,75.07,6,Sofia Quintanilla,La Joya Palmview,74.98,122.47,61.23,106.59,290.3,Unlimited,SBD,F,
Girls,75.07,7,Camila Bazan,Rio Grande City,74.93,113.4,56.7,115.67,285.76,Unlimited,SBD,F,
Girls,75.07,8,Esthefany Sifuentes,La Joya Palmview,70.9,104.33,58.97,111.13,274.42,Unlimited,SBD,F,
Girls,75.07,9,Kamila Acosta,Roma,71.35,102.06,52.16,108.86,263.08,Unlimited,SBD,F,
Girls,75.07,10,Ana Gonzalez,Roma,75.07,106.59,34.02,95.25,235.87,Unlimited,SBD,F,
Girls,75.07,11,Dulce Mata,La Joya,71.17,92.99,38.56,102.06,233.6,Unlimited,SBD,F,
Girls,75.07,12,Sharon Garcia,Pharr Valley View,74.12,83.91,38.56,88.45,210.92,Unlimited,SBD,F,
Girls,75.07,13,Fernanda Corona,McAllen Rowe,70.62,70.31,36.29,88.45,195.04,Unlimited,SBD,F,
Girls,75.07,DQ,Amorette Restrepo,McAllen Rowe,68.63,117.93,,,,Unlimited,SBD,F,
Girls,75.07,DQ,Raelynn Torres,McAllen Memorial,70.81,,,,,Unlimited,SBD,F,
Girls,75.07,DQ,Amanda Soria-Cueto,McAllen Memorial,72.53,,,,,Unlimited,SBD,F,
Girls,75.07,DQ,Destinee Rodriquez,Sharyland Pioneer,67.99,72.57,,,,Unlimited,SBD,F,
Girls,75.07,DQ,Yaletzy Perales,Rio Grande City Grulla,69.94,,,,,Unlimited,SBD,F,
Girls,82.33,1,Mya Mendoza,Sharyland Pioneer,80.97,188.24,83.91,158.76,430.91,Unlimited,SBD,F,
Girls,82.33,2,Jasmin Perez,La Joya Juarez-Lincoln,81.47,163.29,95.25,120.2,378.75,Unlimited,SBD,F,
Girls,82.33,3,Yanelly Garza,Roma,79.29,136.08,70.31,111.13,317.51,Unlimited,SBD,F,
Girls,82.33,4,Alexia Leal,La Joya Palmview,75.39,117.93,65.77,111.13,294.84,Unlimited,SBD,F,
Girls,82.33,5,Giomara Navarro,Roma,81.1,104.33,63.5,111.13,278.96,Unlimited,SBD,F,
Girls,82.33,6,Luz Medina,La Joya,77.25,81.65,47.63,120.2,249.48,Unlimited,SBD,F,
Girls,82.33,7,Charlotte Brown,La Joya Palmview,78.97,90.72,43.09,81.65,215.46,Unlimited,SBD,F,
Girls,90.04,1,Alhany Guerrero,McAllen,90.04,165.56,113.4,127.01,405.97,Unlimited,SBD,F,
Girls,90.04,2,Carolina Herrera,McAllen Memorial,83.55,165.56,83.91,136.08,385.55,Unlimited,SBD,F,
Girls,90.04,3,Jestyne Sandoval,McAllen Memorial,82.46,154.22,77.11,140.61,371.95,Unlimited,SBD,F,
Girls,90.04,4,Myrka Cuadros,Mission,87.91,136.08,70.31,127.01,333.39,Unlimited,SBD,F,
Girls,90.04,5,Savannah Solis,McAllen Rowe,84.41,133.81,63.5,117.93,315.25,Unlimited,SBD,F,
Girls,90.04,6,Zoey Becerra,Rio Grande City Grulla,85.23,142.88,58.97,113.4,315.25,Unlimited,SBD,F,
Girls,90.04,7,Janie Lopez,Roma,88.54,122.47,56.7,102.06,281.23,Unlimited,SBD,F,
Girls,100.02,1,Kylie Trevino,Rio Grande City Grulla,99.02,197.31,102.06,165.56,464.93,Unlimited,SBD,F,
Girls,100.02,2,Yanet Cruz,La Joya Juarez-Lincoln,94.94,154.22,92.99,117.93,365.14,Unlimited,SBD,F,
Girls,100.02,3,Anna Esquivel,La Joya Juarez-Lincoln,98.61,147.42,72.57,122.47,342.46,Unlimited,SBD,F,
Girls,100.02,4,Madelynn Aguillon,McAllen,99.02,138.35,83.91,120.2,342.46,Unlimited,SBD,F,
Girls,100.02,5,Jaliyah Luna,Sharyland Pioneer,98.52,106.59,65.77,106.59,278.96,Unlimited,SBD,F,
Girls,100.02,6,Selena Villarreal,Pharr Valley View,92.08,77.11,45.36,102.06,224.53,Unlimited,SBD,F,
Girls,100.02,DQ,Monique Hernandez,Mission,96.62,,,,,Unlimited,SBD,F,
Girls,110,1,Sarah Soliz,La Joya Palmview,102.06,151.95,65.77,106.59,324.32,Unlimited,SBD,F,
Girls,110,2,Mia Hurtado,La Joya Juarez-Lincoln,107.59,140.61,81.65,102.06,324.32,Unlimited,SBD,F,
Girls,110,3,Emily Tolston,Pharr Valley View,105.1,113.4,61.23,90.72,265.35,Unlimited,SBD,F,
Girls,110,4,Melissa Diaz,La Joya,108.86,81.65,38.56,86.18,206.38,Unlimited,SBD,F,
Girls,110+,1,Maya Magallanes,Rio Grande City,121.47,195.04,136.08,165.56,496.68,Unlimited,SBD,F,
Girls,110+,2,Perla Ortiz,Rio Grande City,115.8,161.03,74.84,131.54,367.41,Unlimited,SBD,F,
Girls,110+,3,Mariela Moreno,Roma,137.98,131.54,61.23,124.74,317.51,Unlimited,SBD,F,
Girls,110+,4,Alejandra Garcia,Mission,116.12,86.18,40.82,92.99,219.99,Unlimited,SBD,F,
