Division,WeightClassKg,Place,Name,Team,BodyweightKg,Best3SquatKg,Best3BenchKg,Best3DeadliftKg,TotalKg,Equipment,Event,Sex
Boys,51.71,1,Carlos Reynoso #1,McKinney Boyd,51.12,124.74,68.04,142.88,335.66,Single-ply,SBD,M
Boys,51.71,2,Dru Benn,Little Elm,51.62,113.4,65.77,111.13,290.3,Single-ply,SBD,M
Boys,51.71,3,Ricky Lopez,Frisco Centennial,46.08,108.86,56.7,117.93,283.5,Single-ply,SBD,M
Boys,51.71,4,Matt Howard #2,Celina,43.36,65.77,34.02,83.91,183.7,Single-ply,SBD,M
Boys,51.71,DQ,Chance Balsamo,Celina,51.53,79.38,,,,Single-ply,SBD,M
Boys,55.79,1,Darius Rivera,Princeton,55.38,167.83,102.06,185.97,455.86,Single-ply,SBD,M
Boys,59.87,2,Christian Castillo,Little Elm,56.02,151.95,83.91,154.22,390.09,Single-ply,SBD,M
Boys,59.87,3,Dillan Cromeens,Nevada Community,55.88,138.35,74.84,145.15,358.34,Single-ply,SBD,M
Boys,59.87,4,Baldemar Carbajal,Sherman,56.02,113.4,74.84,127.01,315.25,Single-ply,SBD,M
Boys,55.79,5,Jake Hefton,Sherman,55.16,111.13,56.7,133.81,301.64,Single-ply,SBD,M
Boys,55.79,6,Travis Doke,Prosper,54.79,102.06,65.77,97.52,265.35,Single-ply,SBD,M
Boys,59.87,1,Erik Torres,Celina,59.51,161.03,106.59,167.83,435.45,Single-ply,SBD,M
Boys,67.13,2,Grant Carter,Sanger,60.1,158.76,97.52,163.29,419.57,Single-ply,SBD,M
Boys,59.87,3,Kolby Dodson,Frisco Centennial,57.79,111.13,88.45,140.61,340.19,Single-ply,SBD,M
Boys,59.87,4,Michael Brown #8,Lancaster,57.83,129.27,70.31,133.81,333.39,Single-ply,SBD,M
Boys,67.13,5,Theo Serrano #2,Quinlan Ford,60.06,113.4,68.04,142.88,324.32,Single-ply,SBD,M
Boys,59.87,6,Carl Harvey,Frisco Centennial,57.88,97.52,74.84,138.35,310.71,Single-ply,SBD,M
Boys,59.87,7,Kole Bickerstaff,Sherman,57.88,90.72,49.9,113.4,254.01,Single-ply,SBD,M
Boys,59.87,8,Alex Cueva,Prosper,58.97,83.91,65.77,99.79,249.48,Single-ply,SBD,M
Boys,67.13,DQ,Nico Barlis,Frisco Centennial,60.06,113.4,,,,Single-ply,SBD,M
Boys,67.13,1,Will Carter,Sanger,66.41,183.7,120.2,204.12,508.02,Single-ply,SBD,M
Boys,67.13,2,Grayson Sneed,Frisco Centennial,66.68,181.44,106.59,183.7,471.74,Single-ply,SBD,M
Boys,67.13,3,Alwin Crawford,Northwest Nelson,65.59,170.1,99.79,181.44,451.32,Single-ply,SBD,M
Boys,67.13,4,Solomon Titus,Leonard,66.32,176.9,97.52,172.37,446.79,Single-ply,SBD,M
Boys,67.13,5,Austin Fugina,Frisco Centennial,66.68,158.76,83.91,185.97,428.64,Single-ply,SBD,M
Boys,67.13,6,Denton Bridges,Terrell,66.68,142.88,97.52,158.76,399.16,Single-ply,SBD,M
Boys,67.13,7,Wonya Tucker,Terrell,67.04,142.88,90.72,165.56,399.16,Single-ply,SBD,M
Boys,67.13,8,J. Dennis,Commerce,63.73,129.27,86.18,163.29,378.75,Single-ply,SBD,M
Boys,67.13,9,Bailey Forst,Frisco Heritage,65.5,151.95,79.38,142.88,374.21,Single-ply,SBD,M
Boys,67.13,10,D Cornelius,Little Elm,62.37,151.95,79.38,136.08,367.41,Single-ply,SBD,M
Boys,74.84,11,Paul Lutz,Leonard,67.31,140.61,70.31,151.95,362.87,Single-ply,SBD,M
Boys,67.13,12,Paul Redford,Princeton,63.87,120.2,79.38,145.15,344.73,Single-ply,SBD,M
Boys,67.13,13,Clayton Elsey,Sanger,60.33,113.4,72.57,136.08,322.05,Single-ply,SBD,M
Boys,74.84,14,D Lemon,Caddo Mills,67.36,113.4,68.04,136.08,317.51,Single-ply,SBD,M
Boys,67.13,15,Kaleb Moore,Caddo Mills,60.51,108.86,65.77,138.35,312.98,Single-ply,SBD,M
Boys,67.13,16,David Isham,Caddo Mills,61.14,113.4,52.16,117.93,283.5,Single-ply,SBD,M
Boys,67.13,17,Michael Sigman,Prosper,61.69,113.4,68.04,92.99,274.42,Single-ply,SBD,M
Boys,67.13,18,Jesse Moore,Caddo Mills,64.32,61.23,45.36,88.45,195.04,Single-ply,SBD,M
Boys,67.13,DQ,Jacob Tillett,Caddo Mills,67.13,131.54,,,,Single-ply,SBD,M
Boys,67.13,DQ,Jalon Blake,Carrollton Ranchview,65.32,,72.57,,,Single-ply,SBD,M
Boys,67.13,DQ,Jb Peltier,Commerce,66.04,183.7,,,,Single-ply,SBD,M
Boys,67.13,DQ,John Stanley,Van Alstyne,62.87,122.47,74.84,,,Single-ply,SBD,M
Boys,74.84,1,Ty Slaughter,Whitesboro,71.67,215.46,129.27,217.72,562.45,Single-ply,SBD,M
Boys,74.84,2,Trevor Wilson,Frisco Centennial,73.84,208.65,108.86,226.8,544.31,Single-ply,SBD,M
Boys,74.84,3,Tanner Johnson,Whitesboro,73.94,217.72,106.59,217.72,542.04,Single-ply,SBD,M
Boys,74.84,4,Savon Miles,Princeton,73.66,183.7,97.52,183.7,464.93,Single-ply,SBD,M
Boys,74.84,5,Jake Haker,Van Alstyne,74.39,170.1,113.4,181.44,464.93,Single-ply,SBD,M
Boys,74.84,6,Tres Cox,Northwest Nelson,68.95,176.9,115.67,165.56,458.13,Single-ply,SBD,M
Boys,74.84,7,Timmy Caradine,Terrell,72.48,158.76,97.52,181.44,437.72,Single-ply,SBD,M
Boys,82.1,8,Charles Wilham,Quinlan Ford,75.02,158.76,117.93,154.22,430.91,Single-ply,SBD,M
Boys,74.84,9,Jaylon Norman,Carrollton Ranchview,71.03,158.76,99.79,167.83,426.38,Single-ply,SBD,M
Boys,74.84,10,George Flores,Princeton,71.71,140.61,102.06,181.44,424.11,Single-ply,SBD,M
Boys,74.84,11,Triston Pryor,Van Alstyne,73.3,158.76,88.45,174.63,421.84,Single-ply,SBD,M
Boys,74.84,12,Jake Bowland,Princeton,71.17,158.76,95.25,163.29,417.3,Single-ply,SBD,M
Boys,74.84,13,Jaylon Leonard,Princeton,73.21,145.15,90.72,156.49,392.36,Single-ply,SBD,M
Boys,82.1,14,M Hong,Carrollton Creekview,75.02,124.74,97.52,165.56,387.82,Single-ply,SBD,M
Boys,74.84,15,Zach Smith #15,Nevada Community,72.48,136.08,74.84,167.83,378.75,Single-ply,SBD,M
Boys,74.84,16,Calvin Olsen,Quinlan Ford,72.12,136.08,81.65,151.95,369.68,Single-ply,SBD,M
Boys,74.84,17,Dorrian Colbert,Frisco Heritage,73.48,127.01,90.72,140.61,358.34,Single-ply,SBD,M
Boys,74.84,18,Dakota Middleton,Prosper,68.58,133.81,79.38,142.88,356.07,Single-ply,SBD,M
Boys,82.1,19,Brandon Murphey,Whitesboro,75.07,138.35,83.91,124.74,347,Single-ply,SBD,M
Boys,74.84,20,Darius Brown,Lancaster,69.76,124.74,74.84,142.88,342.46,Single-ply,SBD,M
Boys,74.84,21,Drew Patterson,Celina,70.03,115.67,83.91,136.08,335.66,Single-ply,SBD,M
Boys,74.84,22,Bryce Moody,Van Alstyne,71.12,120.2,88.45,127.01,335.66,Single-ply,SBD,M
Boys,74.84,23,Blaine Jarratt,Caddo Mills,71.85,113.4,83.91,136.08,333.39,Single-ply,SBD,M
Boys,74.84,24,Preston Johnson,Whitesboro,69.94,127.01,63.5,140.61,331.12,Single-ply,SBD,M
Boys,74.84,25,Doren Gibson,McKinney Boyd,70.31,122.47,79.38,113.4,315.25,Single-ply,SBD,M
Boys,74.84,26,Jared Bowker,Frisco Centennial,73.57,165.56,102.06,,267.62,Single-ply,SB,M
Boys,74.84,27,C Hong,Carrollton Creekview,71.85,142.88,102.06,,244.94,Single-ply,SB,M
Boys,74.84,28,Villegas Villegas,Carrollton Creekview,73.48,83.91,54.43,97.52,235.87,Single-ply,SBD,M
Boys,74.84,DQ,Travis Tidmore,Prosper,72.94,,,,,Single-ply,SBD,M
Boys,74.84,DQ,Wade Woodard,Prosper,72.39,,,,,Single-ply,SBD,M
Boys,82.1,1,Michael Tsapos,Northwest Nelson,81.01,238.14,131.54,195.04,564.72,Single-ply,SBD,M
Boys,82.1,2,Anthony Pegues,Frisco Centennial,76.02,215.46,113.4,195.04,523.9,Single-ply,SBD,M
Boys,82.1,3,Darius Heath,Carrollton Ranchview,78.2,179.17,113.4,201.85,494.42,Single-ply,SBD,M
Boys,82.1,4,David Paredes,Northwest Nelson,81.56,183.7,111.13,167.83,462.66,Single-ply,SBD,M
Boys,89.81,5,Javier Garcia #8,Lancaster,82.33,142.88,102.06,210.92,455.86,Single-ply,SBD,M
Boys,89.81,6,Terry Lawrence,Van Alstyne,82.33,176.9,99.79,170.1,446.79,Single-ply,SBD,M
Boys,82.1,7,Cason Kelly,Lucas Lovejoy,79.11,172.37,99.79,165.56,437.72,Single-ply,SBD,M
Boys,82.1,8,Trenton Brawner,Celina,80.29,163.29,102.06,170.1,435.45,Single-ply,SBD,M
Boys,82.1,9,Dre Deleon,Nevada Community,80.65,158.76,88.45,170.1,417.3,Single-ply,SBD,M
Boys,82.1,10,Justin Wilson #9,Nevada Community,79.11,156.49,92.99,163.29,412.77,Single-ply,SBD,M
Boys,82.1,11,Wyatt Park,McKinney Boyd,76.29,147.42,99.79,158.76,405.97,Single-ply,SBD,M
Boys,82.1,12,Jake LoGrasso,Frisco Heritage,79.92,131.54,99.79,163.29,394.63,Single-ply,SBD,M
Boys,82.1,13,Trevor Brooks,Lancaster,81.01,142.88,102.06,142.88,387.82,Single-ply,SBD,M
Boys,82.1,14,Shawn Littlefield,Caddo Mills,81.83,142.88,102.06,136.08,381.02,Single-ply,SBD,M
Boys,82.1,15,Chris Leach,Princeton,79.83,131.54,83.91,147.42,362.87,Single-ply,SBD,M
Boys,82.1,16,Landon McClain,Van Alstyne,75.93,133.81,81.65,136.08,351.53,Single-ply,SBD,M
Boys,82.1,17,Gideon Erhaabor,Prosper,79.38,136.08,81.65,106.59,324.32,Single-ply,SBD,M
Boys,82.1,18,Adam Myers,Quinlan Ford,79.38,124.74,72.57,124.74,322.05,Single-ply,SBD,M
Boys,82.1,19,Clayton Florio,Caddo Mills,77.75,136.08,77.11,83.91,297.1,Single-ply,SBD,M
Boys,82.1,20,Ryan Burnett,Leonard,79.2,113.4,52.16,117.93,283.5,Single-ply,SBD,M
Boys,82.1,21,Dandre Hawkins,Carrollton Ranchview,80.92,97.52,68.04,113.4,278.96,Single-ply,SBD,M
Boys,82.1,DQ,Davian Carter,Carrollton Ranchview,75.21,183.7,113.4,,,Single-ply,SBD,M
Boys,89.81,DQ,Justin Bennett,Leonard,82.33,163.29,,,,Single-ply,SBD,M
Boys,82.1,DQ,Logan Rizzotto,Frisco Heritage,80.83,113.4,,,,Single-ply,SBD,M
Boys,99.79,1,Keith Ngondo,Little Elm,90.04,260.82,113.4,247.21,621.42,Single-ply,SBD,M
Boys,89.81,2,Derek Shelby,Sanger,86.09,204.12,158.76,217.72,580.6,Single-ply,SBD,M
Boys,89.81,3,Joel Kabongo,Northwest Nelson,82.37,215.46,111.13,226.8,553.38,Single-ply,SBD,M
Boys,89.81,4,Austin Gibson,Northwest Nelson,84.01,183.7,113.4,181.44,478.54,Single-ply,SBD,M
Boys,99.79,5,Collin Jones,Sanger,89.9,172.37,117.93,183.7,474,Single-ply,SBD,M
Boys,99.79,6,Vincent Moreno,Sherman,90.04,161.03,127.01,183.7,471.74,Single-ply,SBD,M
Boys,89.81,7,Jonah Gray,Terrell,86.18,174.63,106.59,183.7,464.93,Single-ply,SBD,M
Boys,89.81,8,Alec Melkovitz,Frisco Centennial,86,167.83,113.4,167.83,449.06,Single-ply,SBD,M
Boys,89.81,9,Adrian Escandon,Nevada Community,87,167.83,97.52,181.44,446.79,Single-ply,SBD,M
Boys,89.81,10,Travis Burger,Lucas Lovejoy,84.01,163.29,113.4,165.56,442.25,Single-ply,SBD,M
Boys,89.81,11,Brandon Melton,Quinlan Ford,85.91,185.97,92.99,158.76,437.72,Single-ply,SBD,M
Boys,89.81,12,Lee Gerth,Prosper,86.18,167.83,92.99,151.95,412.77,Single-ply,SBD,M
Boys,89.81,13,Tristan Farber,Leonard,87.27,154.22,115.67,142.88,412.77,Single-ply,SBD,M
Boys,89.81,14,A Heath,Commerce,84.01,142.88,104.33,163.29,410.5,Single-ply,SBD,M
Boys,99.79,15,Nick Barona,Frisco Centennial,89.99,158.76,102.06,136.08,396.89,Single-ply,SBD,M
Boys,99.79,16,Ian Mauldin,Leonard,89.99,145.15,90.72,158.76,394.63,Single-ply,SBD,M
Boys,89.81,17,John Polus,McKinney Boyd,87.91,158.76,90.72,136.08,385.55,Single-ply,SBD,M
Boys,89.81,18,Devin Gardner #1,Carrollton Ranchview,87.54,142.88,61.23,167.83,371.95,Single-ply,SBD,M
Boys,89.81,19,Billy Harokopus,McKinney Boyd,84.46,136.08,83.91,149.69,369.68,Single-ply,SBD,M
Boys,99.79,20,Billy Pritchett,Quinlan Ford,90.04,142.88,68.04,151.95,362.87,Single-ply,SBD,M
Boys,89.81,21,Micheal Carpin,Frisco Heritage,89.72,127.01,97.52,124.74,349.27,Single-ply,SBD,M
Boys,89.81,22,Coby Countryman,Lucas Lovejoy,88.54,163.29,,,163.29,Single-ply,S,M
Boys,89.81,23,Blake Bass,McKinney Boyd,89.27,156.49,,,156.49,Single-ply,S,M
Boys,89.81,24,Travis Walker,Prosper,83.82,149.69,,,149.69,Single-ply,S,M
Boys,89.81,25,Berry Moore,Lancaster,89.72,124.74,,,124.74,Single-ply,S,M
Boys,89.81,26,Ahndre Hughes,Lancaster,83.82,102.06,,,102.06,Single-ply,S,M
Boys,89.81,DQ,Jayson Ginn,Carrollton Ranchview,84.46,,,,,Single-ply,S,M
Boys,89.81,DQ,Anthony Jones #6,Sherman,85.64,170.1,97.52,,,Single-ply,SB,M
Boys,89.81,DQ,Adam White,Van Alstyne,83.19,174.63,117.93,,,Single-ply,SB,M
Boys,99.79,1,Isaiah Martinez,Commerce,93.8,272.16,172.37,238.14,682.66,Single-ply,SBD,M
Boys,99.79,2,Thomas Morales,Whitesboro,98.34,240.4,145.15,213.19,598.74,Single-ply,SBD,M
Boys,99.79,3,Antonio Harris,Terrell,99.61,208.65,131.54,208.65,548.85,Single-ply,SBD,M
Boys,109.77,4,Taner Renfo,Quinlan Ford,100.02,226.8,113.4,183.7,523.9,Single-ply,SBD,M
Boys,99.79,5,Kyle Griffith,Northwest Nelson,96.16,185.97,115.67,199.58,501.22,Single-ply,SBD,M
Boys,99.79,6,Kelvin McKee,Little Elm,98.16,192.78,95.25,213.19,501.22,Single-ply,SBD,M
Boys,99.79,7,Hinojosa,Carrollton Creekview,92.53,215.46,97.52,172.37,485.34,Single-ply,SBD,M
Boys,109.77,8,Cason Riley,Leonard,99.97,190.51,104.33,185.97,480.81,Single-ply,SBD,M
Boys,99.79,9,Ramon Readus,McKinney Boyd,96.34,170.1,102.06,204.12,476.27,Single-ply,SBD,M
Boys,99.79,10,Logan Roberts,Princeton,95.39,172.37,95.25,204.12,471.74,Single-ply,SBD,M
Boys,99.79,11,Tyler Hobbs,Quinlan Ford,94.08,174.63,102.06,192.78,469.47,Single-ply,SBD,M
Boys,99.79,12,Lane Daniel,Nevada Community,96.8,188.24,99.79,179.17,467.2,Single-ply,SBD,M
Boys,99.79,13,Noah Raney,Sherman,90.72,158.76,113.4,183.7,455.86,Single-ply,SBD,M
Boys,99.79,14,D Mauldin,Commerce,96.34,161.03,113.4,181.44,455.86,Single-ply,SBD,M
Boys,99.79,15,Grayson Briney,Sanger,93.89,188.24,92.99,165.56,446.79,Single-ply,SBD,M
Boys,99.79,16,Alec Comerford,Lucas Lovejoy,98.88,172.37,106.59,149.69,428.64,Single-ply,SBD,M
Boys,99.79,17,Wade Lewis,Northwest Nelson,91.44,158.76,104.33,158.76,421.84,Single-ply,SBD,M
Boys,99.79,18,Juan Martinez,Leonard,90.36,158.76,99.79,151.95,410.5,Single-ply,SBD,M
Boys,99.79,19,Cole Downing,Lucas Lovejoy,91.17,158.76,95.25,149.69,403.7,Single-ply,SBD,M
Boys,99.79,20,Davis Shatto,Frisco Heritage,98.97,140.61,104.33,156.49,401.43,Single-ply,SBD,M
Boys,99.79,21,Davies,Carrollton Creekview,98.25,147.42,83.91,165.56,396.89,Single-ply,SBD,M
Boys,99.79,22,Austin Bertschi,Frisco Heritage,95.53,140.61,83.91,163.29,387.82,Single-ply,SBD,M
Boys,99.79,23,Cj Armijo,Celina,94.53,124.74,102.06,145.15,371.95,Single-ply,SBD,M
Boys,99.79,24,Andrew Taylor,Caddo Mills,93.53,117.93,92.99,136.08,347,Single-ply,SBD,M
Boys,99.79,25,Carlos Montoya,Whitesboro,90.54,122.47,68.04,115.67,306.17,Single-ply,SBD,M
Boys,99.79,26,Daniel Sánchez #6,Quinlan Ford,95.44,102.06,61.23,131.54,294.84,Single-ply,SBD,M
Boys,99.79,27,Parker Parker,Carrollton Creekview,93.62,102.06,65.77,124.74,292.57,Single-ply,SBD,M
Boys,99.79,28,Ky'Lon Counts,Carrollton Ranchview,99.79,120.2,81.65,,201.85,Single-ply,SB,M
Boys,99.79,DQ,Austin Kocian,Terrell,93.8,174.63,102.06,183.7,,Single-ply,SBD,M
Boys,99.79,DQ,Chase Brackens,Frisco Heritage,94.08,,,,,Single-ply,SB,M
Boys,99.79,DQ,Walker,Carrollton Creekview,98.07,151.95,,158.76,,Single-ply,SBD,M
Boys,99.79,DQ,T. Wilson,Commerce,93.98,197.31,,,,Single-ply,SB,M
Boys,99.79,DQ,Justin Alvarez,Prosper,97.52,163.29,,,,Single-ply,SB,M
Boys,109.77,1,Landon Hallmark,Little Elm,109.41,272.16,124.74,256.28,653.17,Single-ply,SBD,M
Boys,109.77,2,Logan Teel,Princeton,104.46,240.4,129.27,240.4,610.08,Single-ply,SBD,M
Boys,109.77,3,Conner Barnes,Sanger,106.14,233.6,172.37,204.12,610.08,Single-ply,SBD,M
Boys,109.77,4,Jerry McNeil,Quinlan Ford,100.79,226.8,151.95,204.12,582.87,Single-ply,SBD,M
Boys,109.77,5,Richard Morones,Little Elm,105.32,226.8,106.59,197.31,530.7,Single-ply,SBD,M
Boys,109.77,6,Garrett Grayson,Sanger,103.6,204.12,129.27,192.78,526.17,Single-ply,SBD,M
Boys,109.77,7,C. McCoy,Little Elm,106.59,206.38,102.06,206.38,514.83,Single-ply,SBD,M
Boys,109.77,8,Ryan Langley,Sanger,105.51,199.58,113.4,174.63,487.61,Single-ply,SBD,M
Boys,109.77,9,Matt Coker,Caddo Mills,101.79,165.56,115.67,181.44,462.66,Single-ply,SBD,M
Boys,124.74,10,Brian Taylor,Lancaster,109.86,158.76,115.67,183.7,458.13,Single-ply,SBD,M
Boys,109.77,11,Morgan Dooley #1,Lucas Lovejoy,105.96,181.44,115.67,158.76,455.86,Single-ply,SBD,M
Boys,109.77,12,Russell Carey,Whitesboro,105.23,185.97,90.72,176.9,453.59,Single-ply,SBD,M
Boys,109.77,13,A. Morgan,Commerce,109.23,174.63,120.2,149.69,444.52,Single-ply,SBD,M
Boys,109.77,14,Logan Sloniger,Northwest Nelson,101.24,172.37,97.52,158.76,428.64,Single-ply,SBD,M
Boys,109.77,15,Bradley Hume,McKinney Boyd,100.97,170.1,86.18,158.76,415.04,Single-ply,SBD,M
Boys,109.77,16,Cueto,Carrollton Creekview,101.88,149.69,102.06,147.42,399.16,Single-ply,SBD,M
Boys,109.77,17,Tristan Robinson,Whitesboro,101.7,147.42,102.06,142.88,392.36,Single-ply,SBD,M
Boys,109.77,18,Kitt Kitt,Carrollton Creekview,109.41,170.1,72.57,129.27,371.95,Single-ply,SBD,M
Boys,109.77,19,Sosa,Carrollton Creekview,104.96,115.67,72.57,102.06,290.3,Single-ply,SBD,M
Boys,124.74+,1,Matthew Busby,Lone Oak,124.92,274.42,158.76,249.48,682.66,Single-ply,SBD,M
Boys,124.74,2,Justin Self,Northwest Nelson,112.76,226.8,151.95,201.85,580.6,Single-ply,SBD,M
Boys,124.74,3,Cameron Adkins,Leonard,120.29,217.72,124.74,226.8,569.26,Single-ply,SBD,M
Boys,124.74,4,Will Brogdon,Van Alstyne,121.65,222.26,127.01,215.46,564.72,Single-ply,SBD,M
Boys,124.74,5,David Allen #6,Quinlan Ford,118.21,226.8,113.4,204.12,544.31,Single-ply,SBD,M
Boys,124.74,6,Brance Watts,Sanger,111.58,213.19,131.54,192.78,537.51,Single-ply,SBD,M
Boys,124.74,7,Derek Templeman,Princeton,123.65,204.12,122.47,197.31,523.9,Single-ply,SBD,M
Boys,124.74,8,James Nguyen #2,Lucas Lovejoy,112.67,204.12,102.06,181.44,487.61,Single-ply,SBD,M
Boys,124.74,9,Blaine Nuckols,Frisco Heritage,118.12,183.7,108.86,181.44,474,Single-ply,SBD,M
Boys,124.74,10,Tristan Bennett,Carrollton Ranchview,111.13,158.76,90.72,181.44,430.91,Single-ply,SBD,M
Boys,124.74,11,Jerry Daniel,Nevada Community,118.21,154.22,95.25,161.03,410.5,Single-ply,SBD,M
Boys,124.74,12,Cameron Mendoza,Carrollton Ranchview,121.2,136.08,97.52,172.37,405.97,Single-ply,SBD,M
Boys,124.74,13,Seth Ambrose,McKinney Boyd,123.47,158.76,97.52,147.42,403.7,Single-ply,SBD,M
Boys,124.74,14,Ethan Eismont,Carrollton Ranchview,110.86,124.74,74.84,145.15,344.73,Single-ply,SBD,M
Boys,124.74,DQ,Jaxon Williams,Frisco Heritage,112.76,172.37,,190.51,,Single-ply,SBD,M
Boys,124.74+,1,Trey Marks,Little Elm,142.25,283.5,165.56,240.4,689.46,Single-ply,SBD,M
Boys,124.74+,2,Jake Baumert,Lucas Lovejoy,132.63,226.8,181.44,229.06,637.3,Single-ply,SBD,M
Boys,124.74+,3,Kasey Misenheimer,Whitesboro,130.63,238.14,131.54,208.65,578.33,Single-ply,SBD,M
Boys,124.74+,4,Eric Roberts,Terrell,132.36,215.46,138.35,170.1,523.9,Single-ply,SBD,M
Boys,124.74+,5,Jackson Loving,Prosper,136.98,199.58,113.4,185.97,498.95,Single-ply,SBD,M
Boys,124.74+,6,Trouper Arnold,Northwest Nelson,131.36,161.03,115.67,185.97,462.66,Single-ply,SBD,M
Boys,124.74+,7,Patrick Quintana,McKinney Boyd,128.55,181.44,120.2,158.76,460.4,Single-ply,SBD,M
Boys,124.74+,8,Luke Melton,Celina,132,147.42,102.06,161.03,410.5,Single-ply,SBD,M
Boys,124.74+,9,Michael Brian,Leonard,132,136.08,113.4,158.76,408.23,Single-ply,SBD,M
Boys,124.74+,10,Michael Pruiett,Leonard,126.01,158.76,83.91,158.76,401.43,Single-ply,SBD,M
Boys,124.74+,DQ,Raiquan Bennett,Lancaster,140.61,204.12,,,,Single-ply,SBD,M
Boys,,NS,Sir Charles Miles-Frost,Lancaster,,,,,,Single-ply,SBD,M
Boys,,NS,Justin Cook,Lancaster,,,,,,Single-ply,SBD,M
Boys,,NS,Markiest Scott,Lancaster,,,,,,Single-ply,SBD,M
Boys,,NS,T Ramirez,Commerce,,,,,,Single-ply,SBD,M
Boys,,NS,B. Lopez,Commerce,,,,,,Single-ply,SBD,M
Boys,,NS,Max Hahn,Carrollton Ranchview,,,,,,Single-ply,SBD,M
Boys,,NS,Kalon Mitchell,Carrollton Ranchview,,,,,,Single-ply,SBD,M
Boys,,NS,Carter Ward,Celina,,,,,,Single-ply,SBD,M
Boys,,NS,Kaden Gardner,Celina,,,,,,Single-ply,SBD,M
Boys,,NS,Michael Vest,Celina,,,,,,Single-ply,SBD,M
Boys,,NS,Dillon McCormick,Nevada Community,,,,,,Single-ply,SBD,M
Boys,,NS,Dylan Cotton,McKinney Boyd,,,,,,Single-ply,SBD,M
Boys,,NS,Casey Vice,Nevada Community,,,,,,Single-ply,SBD,M
Boys,,NS,Wykeel Wiley,Frisco Heritage,,,,,,Single-ply,SBD,M
Boys,,NS,Cody McKamey,Whitesboro,,,,,,Single-ply,SBD,M
Boys,,NS,Bryan Townsend,Whitesboro,,,,,,Single-ply,SBD,M
Boys,,NS,Ryan Folk,Van Alstyne,,,,,,Single-ply,SBD,M
Boys,,NS,Ethan Burts,Van Alstyne,,,,,,Single-ply,SBD,M
Boys,,NS,Trent Alexander,Van Alstyne,,,,,,Single-ply,SBD,M
Boys,,NS,Chad Perry,Sherman,,,,,,Single-ply,SBD,M
Boys,,NS,Enoch Johnson,Sherman,,,,,,Single-ply,SBD,M
