Place,Name,Sex,Age,Equipment,Division,BodyweightKg,WeightClassKg,Squat1Kg,Squat2Kg,Squat3Kg,Best3SquatKg,Bench1Kg,Bench2Kg,Bench3Kg,Best3BenchKg,Deadlift1Kg,Deadlift2Kg,Deadlift3Kg,Best3DeadliftKg,TotalKg,Event,BirthDate
1,Jeremy Morley,M,56,Raw,M_MR_4_ABPU,89.3,90,-130,130,-137.5,130,95,100,102.5,102.5,172.5,-180,180,180,412.5,SBD,
1,Charlie Poole #2,M,17,Raw,M_TR_2_ABPU,80.8,82.5,140,150,155,155,-110,-110,110,110,190,200,210,210,475,SBD,
1,Zoltán Mihályi,M,45,Wraps,M_MCR_2_BPU,124.9,125,240,265,275,275,170,185,-190,185,250,265,275,275,735,SBD,
1,Tony Roscoe,M,52,Wraps,M_MCR_3_BPU,89.1,90,180,195,-205,195,105,115,117.5,117.5,220,242.5,-257.5,242.5,555,SBD,
1,Nathan Orr,M,24,Wraps,M_OCR_BPU,89.6,90,-250,250,-255,250,150,-155,155,155,250,260,-265,260,665,SBD,
2,Daniel Routledge,M,28,Raw,M_OCR_BPU,88.6,90,217.5,230,242.5,242.5,127.5,132.5,-135,132.5,245,260,-270,260,635,SBD,
3,Mateusz Dawidowski,M,24,Wraps,M_OCR_BPU,90,90,175,190,-200,190,150,160,167.5,167.5,-220,240,-255,240,597.5,SBD,
1,Thaheer Mannan,M,36,Raw,M_OCR_BPU,99.9,100,230,240,245,245,120,125,130,130,240,250,260,260,635,SBD,
1,Marats Halilovs,M,34,Wraps,M_OCR_ABPU,81.35,82.5,180,200,-220,200,130,137.5,-142.5,137.5,220,240,260,260,597.5,SBD,
1,Rob Clark #1,M,36,Raw,M_OCR_ABPU,85,90,175,195,205,205,130,135,140,140,220,240,257.5,257.5,602.5,SBD,
1,William Harkin,M,38,Wraps,M_OCR_ABPU,99.85,100,290,-300,300,300,160,170,-172.5,170,260,270,280,280,750,SBD,
2,Mike Radford,M,30,Wraps,M_OCR_ABPU,99.25,100,225,235,245,245,140,150,-157.5,150,230,245,,245,640,SBD,
1,Graeme Houston,M,31,Wraps,M_OCR_ABPU,106.75,110,165,175,182.5,182.5,115,122.5,127.5,127.5,205,215,,215,525,SBD,
1,Mark Moss,M,60,Multi-ply,M_OEM_ABPU,100.3,110,180,,,180,145,-150,,145,180,,,180,505,SBD,
1,Stephen Hart,M,67,Raw,M_MR_6_ABPU,81.15,82.5,,,,,85,-90,-90,85,,,,,85,B,
1,Kalvis Birze,M,25,Raw,M_OR_BPU,82.4,82.5,,,,,,,,,270,290,,290,290,D,
1,Ben Karaosman,M,27,Single-ply,M_OES_BPU,124.7,125,,,,,,,,,250,272.5,-280,272.5,272.5,D,
1,Marie Hume,F,43,Raw,F_MR_1_ABPU,107.35,110,125,135,142.5,142.5,80,87.5,90,90,140,152.5,160,160,392.5,SBD,
1,Michelle Geraghty-Corns,F,45,Raw,F_MR_2_ABPU,50.7,52,-70,75,80,80,40,45,47.5,47.5,105,110,115,115,242.5,SBD,
1,Daisy McGeeney Murray,F,31,Raw,F_OR_ABPU,55.1,56,65,-80,80,80,40,-45,-45,40,102.5,-110,-110,102.5,222.5,SBD,
1,Louise Breen,F,38,Raw,F_OR_ABPU,59.45,60,100,110,115,115,55,62.5,-67.5,62.5,115,127.5,132.5,132.5,310,SBD,
1,Nicola Smith,F,33,Raw,F_OR_ABPU,67.2,67.5,95,102.5,107.5,107.5,50,55,57.5,57.5,135,147.5,152.5,152.5,317.5,SBD,
2,Georgina Rettey,F,29,Raw,F_OR_ABPU,67.15,67.5,80,82.5,-90,82.5,55,-60,-60,55,110,117.5,125,125,262.5,SBD,
1,Bringsty Edwards,F,34,Raw,F_OR_ABPU,81.5,82.5,130,140,150,150,80,85,-90,85,170,180,190,190,425,SBD,
1,Bhonae Tayali,F,30,Raw,F_OR_ABPU,85.65,90,110,120,130,130,60,67.5,72.5,72.5,145,155,165,165,367.5,SBD,
1,Bethan Shenton,F,,Raw,F_TR_3_ABPU,59.1,60,90,100,-105,100,55,-60,60,60,100,110,-120,110,270,SBD,
1,Emma Pearson #2,F,44,Wraps,F_MCR_1_BPU,72,75,150,160,170,170,95,100,102.5,102.5,170,180,185,185,457.5,SBD,
1,Jazzmin Brooks,F,26,Wraps,F_OCR_BPU,97.15,100,160,170,180,180,112.5,117.5,122.5,122.5,172.5,187.5,-200,187.5,490,SBD,
1,Caitlin Bell,F,26,Wraps,F_OCR_ABPU,59.6,60,112.5,117.5,-122.5,117.5,55,60,65,65,115,122.5,-127.5,122.5,305,SBD,
1,Phoebe Callison,F,30,Wraps,F_OCR_ABPU,62.2,67.5,110,120,125,125,-62.5,65,-67.5,65,120,125,-130,125,315,SBD,
1,Lucy Hopwood,F,33,Wraps,F_OCR_ABPU,79.05,82.5,105,115,-125,115,47.5,52.5,57.5,57.5,120,135,-147.5,135,307.5,SBD,
1,Chloe Holdsworth,F,,Wraps,F_TCR_2_ABPU,59.1,60,87.5,95,100,100,55,60,62.5,62.5,105,-110,112.5,112.5,275,SBD,2006-10-07
1,Blaise White,F,,Wraps,F_TCR_3_ABPU,66.6,67.5,95,100,-105,100,55,60,-62.5,60,-125,130,135,135,295,SBD,
1,Katie Lane,F,35,Single-ply,F_OES_ABPU,70.4,75,142.5,-155,155,155,80,87.5,-92.5,87.5,155,167.5,172.5,172.5,415,SBD,
1,Mira Taylor,F,40,Raw,F_MR_1_BPU,59.5,60,,,,,,,,,135,-142.5,147.5,147.5,147.5,D,
1,Cally Gould,F,42,Raw,F_MR_1_BPU,109.9,110,,,,,,,,,155,165,170,170,170,D,
1,Daniel Deakin,M,22,Raw,M_JR_ABPU,82.5,82.5,155,165,170,170,97.5,100,102.5,102.5,200,212.5,220,220,492.5,SBD,
1,Joe Heasman,M,22,Raw,M_JR_ABPU,87.6,90,170,180,-190,180,-130,130,135,135,197.5,210,222.5,222.5,537.5,SBD,
2,Charlie Poole #2,M,17,Raw,M_TR_2_ABPU,80.8,82.5,140,150,155,155,-110,-110,110,110,190,200,210,210,475,SBD,
1,Harry Kirk,M,20,Wraps,M_JCR_BPU,99.75,100,245,257.5,-270,257.5,175,-185,-185,175,240,257.5,-262.5,257.5,690,SBD,
1,George Goldsmith,M,20,Wraps,M_JCR_ABPU,89.95,90,205,222.5,-235,222.5,125,132.5,140,140,-205,-225,240,240,602.5,SBD,
2,Conner McCulloch,M,21,Wraps,M_JCR_ABPU,89.4,90,220,,,220,130,,,130,-220,-220,220,220,570,SBD,
1,Justin Elliman,M,20,Raw,M_JCR_ABPU,94.1,100,150,-157.5,-157.5,150,105,110,112.5,112.5,175,187.5,-200,187.5,450,SBD,
1,AJ Mangoba,M,32,Wraps,M_OCR_ABPU,72.35,75,175,182.5,192.5,192.5,125,130,-132.5,130,235,245,255,255,577.5,SBD,
2,Adrian Smith #1,M,39,Wraps,M_OCR_ABPU,71.35,75,125,140,152.5,152.5,110,117.5,-125,117.5,165,185,200,200,470,SBD,
1,Tommy Brown #2,M,15,Wraps,M_TCR_1_ABPU,89.65,90,110,120,125,125,62.5,70,75,75,130,145,160,160,360,SBD,
1,Indio Whitnell-Monk,M,17,Wraps,M_TCR_2_ABPU,73.8,75,135,145,160,160,85,92.5,97.5,97.5,185,200,210,210,467.5,SBD,
1,Harry Corner,M,17,Wraps,M_TCR_2_ABPU,99.3,100,200,210,220,220,125,130,135,135,250,265,280,280,635,SBD,
1,Joseph Smith #15,M,19,Wraps,M_TCR_3_ABPU,73.7,75,170,175,-180,175,102.5,-105,-105,102.5,230,245,-255,245,522.5,SBD,
1,Yusuf Kutkut,M,18,Wraps,M_TCR_3_ABPU,80.8,82.5,-185,-185,185,185,90,100,-110,100,190,207.5,225,225,510,SBD,
2,William Gwyer,M,19,Wraps,M_TCR_3_ABPU,81.55,82.5,160,175,182.5,182.5,90,97.5,105,105,205,220,-225,220,507.5,SBD,
1,Logan Pearson,M,14,Raw,M_TR_1_ABPU,71.5,75,,,,,,,,,115,125,130,130,130,D,
