Division,WeightClassKg,Place,Name,Team,BodyweightKg,Best3SquatKg,Best3BenchKg,Best3DeadliftKg,TotalKg,Equipment,Event,Sex
Boys,55.79,1,Thomas Soto,Corpus Christi Calallen,51.89,170.1,88.45,199.58,458.13,Single-ply,SBD,M
Boys,55.79,2,Gilbert Sanchez,San Diego,51.94,149.69,97.52,149.69,396.89,Single-ply,SBD,M
Boys,51.71,DQ,Pete Olivarez,Orange Grove,45.09,104.33,,,,Single-ply,SBD,M
Boys,55.79,1,Ricky Gonzalez,San Diego,52.34,142.88,61.23,138.35,342.46,Single-ply,SBD,M
Boys,55.79,2,Dustin Padilla,Sinton,54.88,113.4,77.11,136.08,326.59,Single-ply,SBD,M
Boys,67.13,1,Rico Rodriguez,San Diego,59.96,183.7,113.4,199.58,496.68,Single-ply,SBD,M
Boys,59.87,2,Rene Rubalcava,San Diego,59.69,188.24,97.52,154.22,439.98,Single-ply,SBD,M
Boys,67.13,3,Justin Gonzalez,San Diego,60.06,170.1,102.06,149.69,421.84,Single-ply,SBD,M
Boys,59.87,4,Robert Serard,Corpus Christi Calallen,58.24,140.61,88.45,158.76,387.82,Single-ply,SBD,M
Boys,59.87,5,Albert Salinas,Bishop,59.87,151.95,83.91,147.42,383.29,Single-ply,SBD,M
Boys,59.87,6,Josue Gonzalez #2,Corpus Christi Calallen,59.33,140.61,77.11,154.22,371.95,Single-ply,SBD,M
Boys,67.13,1,Phong Tran,Rockport-Fulton,65.77,201.85,124.74,206.38,532.97,Single-ply,SBD,M
Boys,67.13,2,Gabriel Ramirez,Ben Bolt-Palito Blanco,64.77,185.97,111.13,188.24,485.34,Single-ply,SBD,M
Boys,67.13,3,Jared Reilly,Corpus Christi Calallen,66.04,163.29,99.79,185.97,449.06,Single-ply,SBD,M
Boys,67.13,4,Beto Medrano,Kingsville King,62.96,138.35,88.45,158.76,385.55,Single-ply,SBD,M
Boys,67.13,5,Monty Garcia,Bishop,61.69,138.35,74.84,140.61,353.8,Single-ply,SBD,M
Boys,74.84,DQ,Ray Valdez,Orange Grove,67.31,,,,,Single-ply,SBD,M
Boys,74.84,1,Paul Villarreal,Sinton,70.4,192.78,115.67,219.99,528.44,Single-ply,SBD,M
Boys,74.84,2,Wally Martinez,Sinton,73.12,156.49,131.54,183.7,471.74,Single-ply,SBD,M
Boys,74.84,3,Nathan Sanchez #3,Corpus Christi Calallen,69.22,163.29,90.72,174.63,428.64,Single-ply,SBD,M
Boys,74.84,4,Austin Castillo,Corpus Christi Calallen,71.67,140.61,92.99,174.63,408.23,Single-ply,SBD,M
Boys,74.84,DQ,Julian Salas,Orange Grove,71.49,,,,,Single-ply,SBD,M
Boys,82.1,1,Gabriel Longoria,Corpus Christi Calallen,80.92,272.16,147.42,231.33,650.91,Single-ply,SBD,M
Boys,82.1,2,Marty Saenz,San Diego,79.11,254.01,131.54,247.21,632.76,Single-ply,SBD,M
Boys,82.1,3,Javiel Rojas,Kingsville King,82.1,226.8,129.27,244.94,601.01,Single-ply,SBD,M
Boys,82.1,4,Brandon Castillo,Corpus Christi Calallen,80.74,226.8,136.08,235.87,598.74,Single-ply,SBD,M
Boys,82.1,5,Josh Perez,Sinton,78.38,201.85,136.08,215.46,553.38,Single-ply,SBD,M
Boys,82.1,6,Ryan de la Cruz,Ben Bolt-Palito Blanco,80.83,206.38,120.2,215.46,542.04,Single-ply,SBD,M
Boys,82.1,7,Andrew Reyes,Rockport-Fulton,81.83,201.85,129.27,206.38,537.51,Single-ply,SBD,M
Boys,89.81,8,Philip Barrientos,Bishop,82.28,190.51,117.93,208.65,517.1,Single-ply,SBD,M
Boys,82.1,9,Jacob Martinez #9,Kingsville King,78.38,165.56,124.74,192.78,483.08,Single-ply,SBD,M
Boys,82.1,10,Roy Saenze,Bishop,82.01,174.63,95.25,170.1,439.98,Single-ply,SBD,M
Boys,89.81,11,Zach Gilkerson,Rockport-Fulton,82.28,161.03,102.06,156.49,419.57,Single-ply,SBD,M
Boys,82.1,12,Kevin Pena,Robstown,75.21,149.69,88.45,163.29,401.43,Single-ply,SBD,M
Boys,82.1,DQ,Matt Garcia,Ben Bolt-Palito Blanco,81.01,195.04,127.01,,,Single-ply,SBD,M
Boys,82.1,DQ,Jermiah Keever,Bishop,80.47,,,,,Single-ply,SBD,M
Boys,82.1,DQ,Manny Jimenez,Kingsville King,80.01,111.13,86.18,,,Single-ply,SBD,M
Boys,89.81,1,Alfonso Montalvo,Riviera Kaufer,87.82,238.14,113.4,195.04,546.58,Single-ply,SBD,M
Boys,89.81,2,Reno Perez,San Diego,84.01,238.14,102.06,199.58,539.77,Single-ply,SBD,M
Boys,89.81,3,Ben Burkett,Bishop,87.27,183.7,117.93,181.44,483.08,Single-ply,SBD,M
Boys,89.81,4,Dabi Reyna,Robstown,84.1,120.2,79.38,158.76,358.34,Single-ply,SBD,M
Boys,89.81,DQ,Jesse Gonzales,Kingsville King,86.09,,,,,Single-ply,SBD,M
Boys,89.81,DQ,Omar Soliz,Kingsville King,86.82,95.25,,,,Single-ply,SBD,M
Boys,99.79,DQ,Aaron Gutierrez,Kingsville King,89.9,,,,,Single-ply,SBD,M
Boys,89.81,DQ,AJ Alvarez,Bishop,89.36,,,,,Single-ply,SBD,M
Boys,89.81,DQ,Jacob Hernandez #6,Sinton,86.45,170.1,122.47,,,Single-ply,SBD,M
Boys,109.77,1,Matthew Ferral,Rockport-Fulton,99.88,224.53,127.01,190.51,542.04,Single-ply,SBD,M
Boys,99.79,2,Tony Ledesma,Riviera Kaufer,98.7,195.04,113.4,204.12,512.56,Single-ply,SBD,M
Boys,99.79,3,Luis Guerra,Bishop,95.53,210.92,95.25,195.04,501.22,Single-ply,SBD,M
Boys,99.79,4,Jesse Gomez,Kingsville King,94.26,204.12,111.13,183.7,498.95,Single-ply,SBD,M
Boys,99.79,5,Justin Salinas,Kingsville King,95.44,192.78,129.27,172.37,494.42,Single-ply,SBD,M
Boys,99.79,6,Luis Mosevias,Orange Grove,99.79,183.7,97.52,190.51,471.74,Single-ply,SBD,M
Boys,99.79,7,Mason Murr,Riviera Kaufer,91.53,181.44,90.72,158.76,430.91,Single-ply,SBD,M
Boys,99.79,8,Alex Monreal,Sinton,91.99,138.35,83.91,136.08,358.34,Single-ply,SBD,M
Boys,99.79,DQ,Luis Lopez #3,San Diego,92.35,297.1,,,,Single-ply,SBD,M
Boys,99.79,DQ,Darren Pham,Rockport-Fulton,96.62,226.8,,,,Single-ply,SBD,M
Boys,99.79,DQ,Nick Trevino #2,Kingsville King,97.25,226.8,129.27,,,Single-ply,SBD,M
Boys,99.79,DQ,Ivan Gonzalez,Ben Bolt-Palito Blanco,90.36,181.44,138.35,,,Single-ply,SBD,M
Boys,109.77,1,Ram Montalvo,Orange Grove,108.95,263.08,154.22,235.87,653.17,Single-ply,SBD,M
Boys,109.77,2,Alex Garcia #6,San Diego,107.32,219.99,117.93,195.04,532.97,Single-ply,SBD,M
Boys,109.77,3,Michael Rodriguez #4,Kingsville King,100.88,185.97,147.42,195.04,528.44,Single-ply,SBD,M
Boys,109.77,4,Rick Gutierrez,Bishop,100.06,210.92,122.47,176.9,510.29,Single-ply,SBD,M
Boys,109.77,5,Truman Jenkins,Rockport-Fulton,105.23,190.51,113.4,188.24,492.15,Single-ply,SBD,M
Boys,109.77,6,Marcus Hinojosa,Bishop,100.33,158.76,97.52,151.95,408.23,Single-ply,SBD,M
Boys,109.77,7,Juan Gomez #8,Robstown,102.51,113.4,83.91,154.22,351.53,Single-ply,SBD,M
Boys,109.77,DQ,John Acuna,Kingsville King,102.69,161.03,102.06,,,Single-ply,SBD,M
Boys,124.74,1,Toshido Paz,Sinton,117.84,183.7,140.61,165.56,489.88,Single-ply,SBD,M
Boys,124.74,DQ,Richie Salinas,Kingsville King,120.47,210.92,,,,Single-ply,SBD,M
Boys,124.74,DQ,Justin Trevino,Robstown,123.1,244.94,145.15,,,Single-ply,SBD,M
Boys,124.74+,1,Dylan Strickland,Corpus Christi Calallen,132.9,242.67,154.22,238.14,635.03,Single-ply,SBD,M
Boys,124.74+,2,Mario Alaniz,San Diego,129.82,226.8,154.22,229.06,610.08,Single-ply,SBD,M
Boys,124.74+,3,Steven Rodriguez,Corpus Christi Calallen,131.45,272.16,140.61,197.31,610.08,Single-ply,SBD,M
Boys,124.74+,4,Sergio Garcia,Corpus Christi Calallen,135.17,217.72,113.4,190.51,521.63,Single-ply,SBD,M
Boys,124.74+,DQ,Oscar Ortiz,Orange Grove,141.07,299.37,174.63,,,Single-ply,SBD,M
Boys,124.74+,DQ,Luis Lopez #1,Kingsville King,136.53,,,,,Single-ply,SBD,M
