Division,WeightClassKg,Place,Name,Team,BodyweightKg,Best3SquatKg,Best3BenchKg,Best3DeadliftKg,TotalKg,Equipment,Event,Sex,BirthDate
Girls,44.23,1,Callie Greenberg,Hillsboro,42.96,127.01,65.77,113.4,306.17,Unlimited,SBD,F,
Girls,44.23,2,McKenize Rodriguez,Venus,43.27,102.06,54.43,99.79,256.28,Unlimited,SBD,F,
Girls,44.23,3,Veyda Baena,Sealy,41.64,97.52,47.63,104.33,249.48,Unlimited,SBD,F,
Girls,44.23,4,Marely Villegas,Hillsboro,44.04,102.06,54.43,92.99,249.48,Unlimited,SBD,F,
Girls,44.23,5,Andrea Sambrano,Smithville,42.5,79.38,29.48,86.18,195.04,Unlimited,SBD,F,
Girls,44.23,6,Aaliya Miramontes,Venus,40.42,63.5,40.82,68.04,172.37,Unlimited,SBD,F,
Girls,44.23,7,Natalye Oleavrre,Waco Connally,39.05,52.16,34.02,79.38,165.56,Unlimited,SBD,F,
Girls,47.85,1,Lillianna Langendorf,Lago Vista,46.9,133.81,79.38,129.27,342.46,Unlimited,SBD,F,
Girls,47.85,2,Zoey Smith,Giddings,46.45,115.67,58.97,108.86,283.5,Unlimited,SBD,F,
Girls,47.85,3,Maria Reyes,Hillsboro,46.99,111.13,56.7,115.67,283.5,Unlimited,SBD,F,
Girls,47.85,4,Eva Alcozer,Salado,47.54,120.2,58.97,104.33,283.5,Unlimited,SBD,F,
Girls,47.85,5,Marlie Hawkins,Lago Vista,47.85,95.25,56.7,102.06,254.01,Unlimited,SBD,F,
Girls,47.85,6,Blythe Edwards,Smithville,47.17,99.79,49.9,92.99,242.67,Unlimited,SBD,F,
Girls,47.85,7,Yozelin Sarabia,Waco La Vega,46.99,81.65,47.63,99.79,229.06,Unlimited,SBD,F,
Girls,47.85,8,Marbel Quintana,Venus,47.49,81.65,45.36,90.72,217.72,Unlimited,SBD,F,
Girls,47.85,9,Alaina Versluis,Hillsboro,47.63,70.31,43.09,95.25,208.65,Unlimited,SBD,F,
Girls,47.85,10,Kylie Earl,Robinson,47.49,61.23,31.75,81.65,174.63,Unlimited,SBD,F,
Girls,47.85,DQ,Makayla Flores,Caldwell,45.68,,,,,Unlimited,SBD,F,
Girls,51.94,1,Shantel Harlow,Smithville,49.9,127.01,72.57,122.47,322.05,Unlimited,SBD,F,
Girls,51.94,2,Mia Gonzalez,China Spring,51.07,122.47,65.77,129.27,317.51,Unlimited,SBD,F,
Girls,51.94,3,Kasey Fitzer,Gatesville,50.35,115.67,74.84,115.67,306.17,Unlimited,SBD,F,
Girls,51.94,4,Antoinette Adjei,Venus,50.98,120.2,61.23,124.74,306.17,Unlimited,SBD,F,
Girls,51.94,5,Isabella Pittillo,Sealy,51.21,97.52,65.77,120.2,283.5,Unlimited,SBD,F,
Girls,51.94,6,Avery Roberts,China Spring,51.17,95.25,65.77,104.33,265.35,Unlimited,SBD,F,
Girls,51.94,7,Baylyn Roberts,Gatesville,48.72,90.72,61.23,111.13,263.08,Unlimited,SBD,F,
Girls,51.94,8,Cloe Creech,Hillsboro,50.67,99.79,54.43,106.59,260.82,Unlimited,SBD,F,
Girls,51.94,9,Daisy Trejo,Hillsboro,50.08,102.06,49.9,106.59,258.55,Unlimited,SBD,F,
Girls,51.94,10,Emmely Sarabia,Waco La Vega,50.89,90.72,45.36,104.33,240.4,Unlimited,SBD,F,
Girls,51.94,11,Carissa Ramirez,Glen Rose,50.44,88.45,52.16,88.45,229.06,Unlimited,SBD,F,
Girls,51.94,DQ,Maddy Salazar,Lago Vista,50.58,,,,,Unlimited,SBD,F,
Girls,56.02,1,Raya Powell,Smithville,55.02,136.08,72.57,129.27,337.93,Unlimited,SBD,F,
Girls,56.02,2,Carli Parker,Lago Vista,55.07,133.81,74.84,129.27,337.93,Unlimited,SBD,F,
Girls,56.02,3,Haley Kruger,Lago Vista,54.7,131.54,65.77,131.54,328.85,Unlimited,SBD,F,
Girls,56.02,4,Flor Scott,Hillsboro,53.57,133.81,63.5,120.2,317.51,Unlimited,SBD,F,
Girls,56.02,5,Emma Lavett,Glen Rose,55.07,122.47,61.23,131.54,315.25,Unlimited,SBD,F,
Girls,56.02,6,Bella Yerger,China Spring,56.02,124.74,61.23,127.01,312.98,Unlimited,SBD,F,
Girls,56.02,7,Jenna Janson,Lago Vista,54.3,106.59,61.23,122.47,290.3,Unlimited,SBD,F,
Girls,56.02,8,Yoaneth Quintana,Venus,55.57,111.13,56.7,120.2,288.03,Unlimited,SBD,F,
Girls,56.02,9,Kensley Eary,Gatesville,51.98,106.59,65.77,113.4,285.76,Unlimited,SBD,F,
Girls,56.02,10,Audrey Nicks,Giddings,55.07,115.67,56.7,104.33,276.69,Unlimited,SBD,F,
Girls,56.02,11,Lexi Douglas,Glen Rose,53.3,102.06,61.23,108.86,272.16,Unlimited,SBD,F,
Girls,56.02,12,Jade Nelson,Hillsboro,54.43,104.33,56.7,102.06,263.08,Unlimited,SBD,F,
Girls,60.1,1,Emery Bayer,Smithville,58.92,158.76,88.45,142.88,390.09,Unlimited,SBD,F,
Girls,60.1,2,Julee Beltran,Hillsboro,60.1,165.56,88.45,136.08,390.09,Unlimited,SBD,F,
Girls,60.1,3,Jayden Lade,Lago Vista,59.87,133.81,68.04,129.27,331.12,Unlimited,SBD,F,
Girls,60.1,4,Arisbeth Segundo,Giddings,58.2,133.81,68.04,117.93,319.78,Unlimited,SBD,F,
Girls,60.1,5,Evelyn Castaneda,Hillsboro,58.65,129.27,65.77,124.74,319.78,Unlimited,SBD,F,
Girls,60.1,6,Alisia Librado,Hillsboro,58.29,113.4,70.31,133.81,317.51,Unlimited,SBD,F,
Girls,60.1,7,Bela Mondragon,Gatesville,59.78,115.67,83.91,113.4,312.98,Unlimited,SBD,F,
Girls,60.1,8,Marisa Garrett,Hillsboro,60.01,117.93,65.77,115.67,299.37,Unlimited,SBD,F,
Girls,60.1,9,Sheyla Ramirez,Hillsboro,56.15,115.67,56.7,115.67,288.03,Unlimited,SBD,F,
Girls,60.1,10,Claire Penney,China Spring,58.01,99.79,72.57,113.4,285.76,Unlimited,SBD,F,
Girls,60.1,11,Presley Hirsch,Giddings,56.93,102.06,77.11,99.79,278.96,Unlimited,SBD,F,
Girls,60.1,12,Liberty Braswell,Lorena,59.28,102.06,58.97,95.25,256.28,Unlimited,SBD,F,
Girls,67.36,1,Shaylie Teague,Gatesville,65.41,156.49,102.06,161.03,419.57,Unlimited,SBD,F,
Girls,67.36,2,Maddie Casper,Salado,65.73,156.49,115.67,131.54,403.7,Unlimited,SBD,F,
Girls,67.36,3,Saide Cardenas,Hillsboro,62.55,149.69,83.91,136.08,369.68,Unlimited,SBD,F,
Girls,67.36,4,Valeria Leverman,Hillsboro,65.95,127.01,79.38,131.54,337.93,Unlimited,SBD,F,
Girls,67.36,5,Maylin Caldera,Giddings,65.23,131.54,79.38,124.74,335.66,Unlimited,SBD,F,
Girls,67.36,6,Jureth Ortiz,Hillsboro,65.14,124.74,61.23,131.54,317.51,Unlimited,SBD,F,
Girls,67.36,7,Callie Cox,China Spring,65.86,113.4,81.65,117.93,312.98,Unlimited,SBD,F,
Girls,67.36,8,Rileigh Ramirez,Lago Vista,63.37,117.93,68.04,124.74,310.71,Unlimited,SBD,F,
Girls,67.36,9,Maliyah Teinert,Jarrell,65.36,111.13,68.04,117.93,297.1,Unlimited,SBD,F,
Girls,67.36,10,Brynlie Vantreese,Hillsboro,61.19,120.2,54.43,113.4,288.03,Unlimited,SBD,F,
Girls,67.36,11,Reigan Davidson,Gatesville,64.5,104.33,54.43,111.13,269.89,Unlimited,SBD,F,
Girls,67.36,DQ,Cadence Thrasher,Venus,64.86,,,,,Unlimited,SBD,F,
Girls,75.07,1,Braelynn Hendricks,Salado,70.58,156.49,81.65,127.01,365.14,Unlimited,SBD,F,
Girls,75.07,2,Victoria Brown,Venus,71.4,138.35,108.86,113.4,360.61,Unlimited,SBD,F,
Girls,75.07,3,Ashley Gallegos,Hillsboro,71.62,151.95,83.91,113.4,349.27,Unlimited,SBD,F,
Girls,75.07,4,Aaliyah Totten,China Spring,74.53,122.47,79.38,140.61,342.46,Unlimited,SBD,F,
Girls,75.07,5,Silvana Perez,Venus,73.48,151.95,70.31,115.67,337.93,Unlimited,SBD,F,
Girls,75.07,6,Alexa Manuel,Hillsboro,68.27,131.54,81.65,120.2,333.39,Unlimited,SBD,F,
Girls,75.07,7,Abigail Vasser,Lorena,70.53,136.08,61.23,136.08,333.39,Unlimited,SBD,F,
Girls,75.07,8,Avery Allen,Jarrell,73.8,115.67,63.5,136.08,315.25,Unlimited,SBD,F,
Girls,75.07,9,Marabella Woodford,Lago Vista,73.39,122.47,65.77,113.4,301.64,Unlimited,SBD,F,
Girls,75.07,10,Peyten Schaub,Salado,72.12,106.59,61.23,120.2,288.03,Unlimited,SBD,F,
Girls,75.07,11,Kaelyn Chapman,China Spring,74.71,106.59,58.97,122.47,288.03,Unlimited,SBD,F,
Girls,75.07,12,Taylor Harlin,Glen Rose,74.62,104.33,65.77,108.86,278.96,Unlimited,SBD,F,
Girls,82.33,1,Emma Turner,Robinson,81.1,183.7,102.06,156.49,442.25,Unlimited,SBD,F,
Girls,82.33,2,Reese Lange,Salado,79.15,158.76,106.59,161.03,426.38,Unlimited,SBD,F,
Girls,82.33,3,Riley Guthrie,Salado,77.11,136.08,92.99,140.61,369.68,Unlimited,SBD,F,
Girls,82.33,4,Lourdes Soria,Hillsboro,78.52,149.69,79.38,140.61,369.68,Unlimited,SBD,F,
Girls,82.33,5,Sara Silvas,Hillsboro,79.42,147.42,83.91,129.27,360.61,Unlimited,SBD,F,
Girls,82.33,6,Gabby Gomez,Lorena,75.21,136.08,77.11,138.35,351.53,Unlimited,SBD,F,
Girls,82.33,7,Emma Vicente,Hillsboro,80.74,145.15,63.5,129.27,337.93,Unlimited,SBD,F,
Girls,82.33,8,Wren Walts,Glen Rose,81.96,124.74,79.38,133.81,337.93,Unlimited,SBD,F,
Girls,82.33,9,Belle Rivera,China Spring,79.51,117.93,88.45,129.27,335.66,Unlimited,SBD,F,
Girls,82.33,DQ,Maloney Hambrice,Godley,75.3,,,,,Unlimited,SBD,F,
Girls,82.33,DQ,Lauren Kusey,Sealy,79.83,127.01,,,,Unlimited,SBD,F,
Girls,82.33,DQ,Haven Hmielewski,Sealy,78.56,136.08,,,,Unlimited,SBD,F,
Girls,90.04,1,Jaiden Saucedo,Giddings,86.77,204.12,131.54,163.29,498.95,Unlimited,SBD,F,
Girls,90.04,2,Carli Rosson,Glen Rose,87.54,154.22,102.06,140.61,396.89,Unlimited,SBD,F,
Girls,90.04,3,Lindsay Sula,Salado,88.68,147.42,86.18,151.95,385.55,Unlimited,SBD,F,
Girls,90.04,4,Brooklyn Norman,Glen Rose,85.59,129.27,70.31,136.08,335.66,Unlimited,SBD,F,
Girls,90.04,5,Yoselin Castaneda,Hillsboro,83.42,133.81,61.23,111.13,306.17,Unlimited,SBD,F,
Girls,90.04,6,Mallory Young,Glen Rose,86.18,129.27,58.97,113.4,301.64,Unlimited,SBD,F,
Girls,90.04,7,Izzy King,Robinson,87.91,108.86,68.04,120.2,297.1,Unlimited,SBD,F,
Girls,90.04,8,Makinsey Bookout,Sealy,86.32,122.47,52.16,120.2,294.84,Unlimited,SBD,F,
Girls,90.04,9,Christine Brown,Waco Connally,86.64,115.67,58.97,104.33,278.96,Unlimited,SBD,F,
Girls,90.04,DQ,Payten Alamillo,Smithville,82.6,,,,,Unlimited,SBD,F,
Girls,100.02,1,Karissa Treat,Robinson,90.22,170.1,88.45,149.69,408.23,Unlimited,SBD,F,
Girls,100.02,2,Annabel Navarro,Sealy,95.3,154.22,95.25,147.42,396.89,Unlimited,SBD,F,
Girls,100.02,3,Emma Davidson,Gatesville,97.25,147.42,120.2,122.47,390.09,Unlimited,SBD,F,
Girls,100.02,4,Jami Rodriguez,Hillsboro,95.84,165.56,86.18,127.01,378.75,Unlimited,SBD,F,
Girls,100.02,5,Miranda Polasek,Caldwell,94.85,161.03,72.57,133.81,367.41,Unlimited,SBD,F,
Girls,100.02,6,Natalie Vaquera,Lago Vista,93.35,136.08,92.99,136.08,365.14,Unlimited,SBD,F,
Girls,100.02,7,Kyli Higginbotham,Lorena,93.67,151.95,70.31,113.4,335.66,Unlimited,SBD,F,
Girls,100.02,8,Victoria Rivera,Venus,96.43,136.08,72.57,122.47,331.12,Unlimited,SBD,F,
Girls,100.02,9,Maddison Hajek,Waco Connally,90.95,95.25,56.7,108.86,260.82,Unlimited,SBD,F,
Girls,100.02,DQ,Samantha Howell,Venus,92.03,,,,,Unlimited,SBD,F,
Girls,100.02,DQ,Tylee Procter,Glen Rose,96.16,,,,,Unlimited,SBD,F,
Girls,110,1,Ariya Green,Waco La Vega,105.87,158.76,90.72,129.27,378.75,Unlimited,SBD,F,
Girls,110,2,Natalia Gallegos,Hillsboro,101.33,142.88,83.91,142.88,369.68,Unlimited,SBD,F,
Girls,110,3,Paityn Booth,Salado,106.14,145.15,74.84,136.08,356.07,Unlimited,SBD,F,
Girls,110,4,Miranda Trejo,Sealy,105.64,142.88,70.31,136.08,349.27,Unlimited,SBD,F,
Girls,110,5,Alaina Martinez,Waco Connally,107.41,140.61,79.38,113.4,333.39,Unlimited,SBD,F,
Girls,110,6,Julia Petty,Gatesville,108.05,111.13,92.99,122.47,326.59,Unlimited,SBD,F,
Girls,110,7,Analicia Silva,Gatesville,100.88,111.13,65.77,127.01,303.91,Unlimited,SBD,F,
Girls,110,8,Layla Bedoy,Robinson,103.65,113.4,65.77,108.86,288.03,Unlimited,SBD,F,
Girls,110,DQ,Mya Perez,Waco Connally,100.79,133.81,,,,Unlimited,SBD,F,
Girls,110,DQ,Koi Alford,Giddings,100.79,108.86,58.97,,,Unlimited,SBD,F,
Girls,110+,1,Keira Blue,Giddings,123.33,197.31,129.27,167.83,494.42,Unlimited,SBD,F,
Girls,110+,2,Adriana Garcia,Giddings,128.68,195.04,145.15,149.69,489.88,Unlimited,SBD,F,
Girls,110+,3,Ariana Ramirez,Giddings,116.26,210.92,127.01,142.88,480.81,Unlimited,SBD,F,
Girls,110+,4,Addison Davis,Giddings,145.92,210.92,122.47,140.61,474,Unlimited,SBD,F,
Girls,110+,5,Angela Garcia,Giddings,123.1,181.44,90.72,131.54,403.7,Unlimited,SBD,F,
Girls,110+,6,Alyssa Saxon,Gatesville,110.9,131.54,92.99,142.88,367.41,Unlimited,SBD,F,
Girls,110+,7,Gabriela Miranda,Salado,121.06,133.81,86.18,136.08,356.07,Unlimited,SBD,F,
Girls,110+,8,Perla Escalante,Waco La Vega,161.48,151.95,90.72,108.86,351.53,Unlimited,SBD,F,
Girls,110+,9,Tomasa Espinal,Brookshire Royal,117.89,136.08,61.23,124.74,322.05,Unlimited,SBD,F,
Girls,110+,10,Janiah Smith,Waco Connally,112.13,124.74,68.04,124.74,317.51,Unlimited,SBD,F,
Girls,110+,DQ,Hailey Wells,China Spring,153.13,,,,,Unlimited,SBD,F,
Girls,110+,DQ,Ariana Everett,Giddings,115.94,,,,,Unlimited,SBD,F,
